National Parks Project
…
join1 %>% summarize_if(is.character, n_distinct)

##   Park.Name Park.Code State
## 1        22        22    15

join1 %>% filter(Month == "Jul") %>% summarize(mean(RecreationVisits))

##   mean(RecreationVisits)
## 1               1024.857

join1 <- as.data.frame(join1)

join1 %>% group_by(State, Region) %>% arrange(desc(Acres))

## # A tibble: 757 x 14
## # Groups:   State, Region [15]
##    Park.Name Park.Code ParkType Region State  Year Month RecreationVisits
##    <chr>     <chr>     <fct>    <fct>  <chr> <dbl> <fct>            <dbl>
##  1 Kobuk Va… KOVA      Nationa… Alaska AK     2015 Jan                  2
##  2 Kobuk Va… KOVA      Nationa… Alaska AK     2015 Feb                  2
##  3 Kobuk Va… KOVA      Nationa… Alaska AK     2015 Mar                  2
##  4 Kobuk Va… KOVA      Nationa… Alaska AK     2015 Apr                  2
##  5 Kobuk Va… KOVA      Nationa… Alaska AK     2015 May                  2
##  6 Kobuk Va… KOVA      Nationa… Alaska AK     2015 Jun                  2
##  7 Kobuk Va… KOVA      Nationa… Alaska AK     2015 Jul                  2
##  8 Kobuk Va… KOVA      Nationa… Alaska AK     2015 Aug                  2
##  9 Kobuk Va… KOVA      Nationa… Alaska AK     2015 Sep                  2
## 10 Kobuk Va… KOVA      Nationa… Alaska AK     2015 Oct                  2
## # … with 747 more rows, and 6 more variables: NonRecreationVisits <dbl>,
## #   TentCampers <dbl>, RVcampers <dbl>, Acres <dbl>, Latitude <dbl>,
## #   Longitude <dbl>

join1 %>% na.omit() %>% summarize(mean_visit = mean(RecreationVisits), sd_visit = sd(RecreationVisits), quantile_visit = quantile(RecreationVisits, .90), min_visit= min(RecreationVisits), max_visit= max(RecreationVisits), cor_visit= cor(Year, RecreationVisits))

##   mean_visit sd_visit quantile_visit min_visit max_visit  cor_visit
## 1   1007.221 594.3792         1810.4         2      1983 0.03599058

join1%>% group_by(Park.Name, State) %>% summarize(mean_visit = mean(RecreationVisits), sd_visit = sd(RecreationVisits), quantile_visit = quantile(RecreationVisits, .90), min_visit= min(RecreationVisits), max_visit= max(RecreationVisits), cor_visit= cor(Year, RecreationVisits), var_visit = var(RecreationVisits)) %>% na.omit 

## # A tibble: 21 x 9
## # Groups:   Park.Name [21]
##    Park.Name State mean_visit sd_visit quantile_visit min_visit max_visit
##    <chr>     <chr>      <dbl>    <dbl>          <dbl>     <dbl>     <dbl>
##  1 Badlands… SD          756.     527.          1695         67      1909
##  2 Big Bend… TX          991.     339.          1324        486      1726
##  3 Biscayne… FL         1211.     255.          1533        638      1681
##  4 Black Ca… CO         1147.     370.          1606        174      1912
##  5 Bryce Ca… UT         1051.     384.          1604.       281      1935
##  6 Canyonla… UT         1291.     655.          1898         65      1964
##  7 Carlsbad… NM         1095.     437.          1594.       184      1890
##  8 Crater L… OR          923.     645.          1842         33      1968
##  9 Dry Tort… FL         1368.     354.          1660.        26      1802
## 10 Haleakal… HI          763.     848.          1964.        97      1982
## # … with 11 more rows, and 2 more variables: cor_visit <dbl>, var_visit <dbl>
…
pamfinal <- join1 %>% mutate(cluster = as.factor(pam2$clustering))

parkdata <-pamfinal %>% group_by(State, Region, ParkType, Park.Code, Month, Park.Name) %>% count(cluster) %>% arrange(desc(n)) %>% pivot_wider(names_from = "cluster", values_from = "n", values_fill = list('n' = 0))
parkdata

## # A tibble: 253 x 9
## # Groups:   State, Region, ParkType, Park.Code, Month, Park.Name [2,604]
##    State Region ParkType    Park.Code Month Park.Name            `1`   `3`   `2`
##    <chr> <fct>  <fct>       <chr>     <fct> <chr>              <int> <int> <int>
##  1 AK    Alaska National P… KEFJ      Apr   Kenai Fjords Nati…     3     0     0
##  2 AK    Alaska National P… KEFJ      Aug   Kenai Fjords Nati…     3     0     0
##  3 AK    Alaska National P… KEFJ      Dec   Kenai Fjords Nati…     3     0     0
##  4 AK    Alaska National P… KEFJ      Feb   Kenai Fjords Nati…     3     0     0
##  5 AK    Alaska National P… KEFJ      Jan   Kenai Fjords Nati…     3     0     0
##  6 AK    Alaska National P… KEFJ      Jul   Kenai Fjords Nati…     3     0     0
##  7 AK    Alaska National P… KEFJ      Jun   Kenai Fjords Nati…     3     0     0
##  8 AK    Alaska National P… KEFJ      Mar   Kenai Fjords Nati…     3     0     0
##  9 AK    Alaska National P… KEFJ      May   Kenai Fjords Nati…     3     0     0
## 10 AK    Alaska National P… KEFJ      Nov   Kenai Fjords Nati…     3     0     0
## # … with 243 more rows
…
